[
    {
        "name": "名古屋駅",
        "lat": 35.170897,
        "lng": 136.881558 
    }, {
        "name": "大名古屋ビルヂング",
        "lat": 35.172311,
        "lng": 136.884568
    }, {
        "name": "国際センター駅",
        "lat": 35.172038, 
        "lng": 136.887701
    }
]

