<?xml version="1.0" encoding="utf-8"?>
<!-- Generator: Adobe Illustrator 19.1.0, SVG Export Plug-In . SVG Version: 6.00 Build 0)  -->
<svg version="1.1" id="Layer_1" xmlns="http://www.w3.org/2000/svg" xmlns:xlink="http://www.w3.org/1999/xlink" x="0px" y="0px"
	 viewBox="0 0 275.9 237.6" style="enable-background:new 0 0 275.9 237.6;" xml:space="preserve">
<style type="text/css">
	.st0{fill:#A9D7A8;}
	.st1{font-family:'TektonPro-Bold';}
	.st2{font-size:42px;}
	.st3{fill:#EAB7C6;}
	.st4{fill:#CEADD1;}
</style>
<g>
	<path class="st0" d="M129.1,111.5c1.5,34.5-6.8,69.1-3.6,103.6c0.1,0.8,0.2,1.6,0.5,2.2c0.9,1.8,3.3,2.2,5.3,2.5
		c1.9,0.2,4.2,0.3,5.3-1.3c0.7-0.9,0.7-2.2,0.7-3.3c0-28.7-0.7-57.4-2.2-86c-0.3-5.9-0.6-11.8-2.3-17.4"/>
	<g>
		<path class="st0" d="M126.6,111.5c1.3,34-6.7,67.7-3.8,101.6c0.5,5.4,2.2,8.3,7.8,9c4.4,0.6,8.4-0.6,9.1-5.5
			c1.1-7.7,0-16.2-0.1-24c-0.1-8.8-0.3-17.6-0.5-26.4c-0.3-9.4-0.6-18.9-1-28.3c-0.4-9-0.4-18.1-2.8-26.9c-0.8-3.1-5.7-1.8-4.8,1.3
			c2.3,8.6,2.3,17.7,2.7,26.5c0.4,9.1,0.7,18.2,1,27.4c0.3,9.1,0.4,18.2,0.6,27.4c0.1,4.2,0.1,8.5,0.1,12.7c0,3.2,1.5,13.3-4.7,10.7
			c-3.5-1.5-2.6-8.2-2.7-11.6c-0.2-4.5-0.2-8.9-0.1-13.4c0.2-9,0.9-17.9,1.7-26.8c1.5-17.9,3.3-35.8,2.6-53.7
			C131.5,108.3,126.5,108.3,126.6,111.5L126.6,111.5z"/>
	</g>
</g>
<text transform="matrix(1 0 0 1 19.1053 155.4389)" class="st1 st2">miki’s    </text>
<g>
	<path class="st3" d="M127.6,109.7l3.3,0.6c-27.3,1.4-55.4,2.8-81.4-5.1c-9.5-2.9-19.5-7.9-22.7-16.8c-3.6-10.2,3.7-21.4,13.5-27.1
		c9.9-5.8,22.5-7.4,33.7-4.4c12.8,3.4,23.1,12.3,31.6,21.8C114.3,88.3,121.7,98.7,127.6,109.7"/>
	<g>
		<path class="st3" d="M127,112.2c1.1,0.2,2.2,0.4,3.3,0.6c0.2-1.6,0.4-3.3,0.7-4.9c-16.8,0.9-33.7,1.7-50.5,0.4
			c-8.7-0.7-17.3-2-25.8-4.2c-6.9-1.8-14.3-4.1-19.9-8.8c-13.7-11.6-2.1-28.1,10.9-33.8c15.5-6.7,32.4-2.9,45.5,7.1
			c14.3,11,25.5,26.7,34.2,42.4c1.6,2.8,5.9,0.3,4.3-2.5C114,79.9,84.5,42.7,47.2,55.6c-13,4.5-27.6,17.6-22.9,32.9
			c4.6,15.3,24.5,19.9,38.1,22.5c22.6,4.3,45.7,3.1,68.6,1.9c2.7-0.1,3.6-4.3,0.7-4.9c-1.1-0.2-2.2-0.4-3.3-0.6
			C125.2,106.7,123.8,111.5,127,112.2L127,112.2z"/>
	</g>
</g>
<g>
	<path class="st4" d="M131.4,108.6l-4.1,1.1c33.5,2.4,67.9,4.6,99.8-8.4c11.7-4.7,23.9-13,27.8-27.6c4.4-16.7-4.6-35.1-16.5-44.4
		c-12.2-9.5-27.6-12.2-41.4-7.2c-15.7,5.6-28.3,20.2-38.8,35.8C147.8,73.5,138.8,90.5,131.4,108.6"/>
	<g>
		<path class="st4" d="M130.8,106.2c-1.4,0.4-2.7,0.7-4.1,1.1c-2.8,0.7-2.1,4.7,0.7,4.9c26.5,1.9,53.5,3.6,79.6-2.1
			c19.9-4.3,43.9-13.2,50.1-35c6-20.8-6.9-44-25.7-53.2c-21.2-10.4-42.9-2.3-58.6,13.6C153.1,55.6,139.5,82.3,129,108
			c-1.2,3,3.6,4.3,4.8,1.3c8.7-21.3,19.7-42.2,33.9-60.3c12.8-16.3,30.8-31.1,52.9-25.6c20.4,5,36.7,26.9,32.2,48.2
			c-4.5,21.4-28.4,29.6-47.2,33.7c-25.7,5.6-52.3,3.7-78.3,1.9c0.2,1.6,0.4,3.3,0.7,4.9c1.4-0.4,2.7-0.7,4.1-1.1
			C135.2,110.2,133.9,105.4,130.8,106.2L130.8,106.2z"/>
	</g>
</g>
<text transform="matrix(1 0 0 1 147.2412 155.4389)" class="st1 st2">weblog</text>
</svg>
